{
"ssid":"LgHs_IoT",
"pass":"oRihCExrhRkqA6i9EQjExdjLQr8pMrEgQgECEsE",
"mqtt_server":"mqtt.lghs.lan",
"mqtt_user":"",
"mqtt_pass":"",
"topic_alert":"rfid54/alert",
"topic_debug":"rfid54/debug",
"topic_info":"rfid54/info",
"topic_access":"rfid54/access",
"topic_ban": "rfid54/ban",
"topic_opening":"rfid54/opening",
"hostname":"RFID_DOOR_HS"
}
